Teste/PQP.vcd
$comment
Copyright (C) 1991-2010 Altera Corporation
Your use of Altera Corporation's design tools, logic functions 
and other software and tools, and its AMPP partner logic 
functions, and any output files from any of the foregoing 
(including device programming or simulation files), and any 
associated documentation or information are expressly subject 
to the terms and conditions of the Altera Program License 
Subscription Agreement, Altera MegaCore Function License 
Agreement, or other applicable license agreement, including, 
without limitation, that your use is for the sole purpose of 
programming logic devices manufactured by Altera and sold by 
Altera or its authorized distributors.  Please refer to the 
applicable agreement for further details.
$end

$date 
  05/18/2019 12:03:39 
$end
$version 
 QUARTUS_VCD_EXPORT 1.0 
$end
$timescale
  1 ps
$end
$scope module CPU $end
$var reg 1 ! clock $end
$var reg 1 " reset $end
$var reg 32 # MuxALUSourceAOut[31:0] $end
$var reg 32 $ MuxALUSourceBOut[31:0] $end
$var reg 32 % PCOut[31:0] $end
$var reg 7 & stateout[6:0] $end
$var reg 32 ' RegAOut[31:0] $end
$var reg 32 ( RegBOut[31:0] $end
$var reg 6 ) OpCode[5:0] $end
$var reg 32 * ALUOutOut[31:0] $end
$var reg 32 + MemOut[31:0] $end
$var reg 32 , MuxIordOut[31:0] $end
$var reg 32 - MemDataRegOut[31:0] $end
$var reg 2 . SControl[1:0] $end
$scope module BancoRegistradores $end
$var reg 32 / Reg0[31:0] $end
$var reg 32 0 Reg3[31:0] $end
$var reg 32 1 Reg4[31:0] $end
$var reg 32 2 Reg5[31:0] $end
$var reg 32 3 Reg6[31:0] $end
$var reg 32 4 Reg7[31:0] $end
$var reg 32 5 Reg8[31:0] $end
$var reg 32 6 Reg9[31:0] $end
$var reg 32 7 Reg10[31:0] $end
$var reg 32 8 Reg11[31:0] $end
$var reg 32 9 Reg12[31:0] $end
$var reg 32 : Reg13[31:0] $end
$var reg 32 ; Reg14[31:0] $end
$var reg 32 < Reg15[31:0] $end
$var reg 32 = Reg16[31:0] $end
$var reg 32 > Reg17[31:0] $end
$var reg 32 ? Reg18[31:0] $end
$var reg 32 @ Reg19[31:0] $end
$var reg 32 A Reg20[31:0] $end
$var reg 32 B Reg21[31:0] $end
$var reg 32 C Reg22[31:0] $end
$var reg 32 D Reg23[31:0] $end
$var reg 32 E Reg24[31:0] $end
$var reg 32 F Reg25[31:0] $end
$var reg 32 G Reg26[31:0] $end
$var reg 32 H Reg27[31:0] $end
$var reg 32 I Reg28[31:0] $end
$var reg 32 J Reg29[31:0] $end
$var reg 32 K Reg30[31:0] $end
$var reg 32 L Reg31[31:0] $end
$upscope $end
$upscope $end
$var reg 32 M \Banco_reg:BancoRegistradores|Reg1 [31:0] $end
$var reg 32 N \Banco_reg:BancoRegistradores|Reg2 [31:0] $end
$enddefinitions $end
#0
$dumpvars
0!
0"
b0 #
b0 $
b0 %
b1 &
b0 '
b0 (
b0 )
b0 *
b0 +
b0 ,
b0 -
b0 .
b0 /
b0 0
b0 1
b0 2
b0 3
b0 4
b0 5
b0 6
b0 7
b0 8
b0 9
b0 :
b0 ;
b0 <
b0 =
b0 >
b0 ?
b0 @
b0 A
b0 B
b0 C
b0 D
b0 E
b0 F
b0 G
b0 H
b0 I
b0 J
b0 K
b0 L
b0 M
b0 N
$end
#500
1!
b100 $
b10 &
b11100011 J
#1000
0!
#1500
1!
b100 #
b0 $
b100 %
b11 &
b100000001000010000000000000001 +
b100 ,
#2000
0!
#2500
1!
b1010 &
#3000
0!
#3500
1!
b100 &
b1000 )
b100000000000100000000000000110 +
#4000
0!
#4500
1!
b0 #
b1 $
b1000 &
#5000
0!
#5500
1!
b100 #
b0 $
b1001 &
b1 *
#6000
0!
#6500
1!
b111 &
b1 M
#7000
0!
#7500
1!
b100 $
b10 &
#8000
0!
#8500
1!
b1000 #
b0 $
b1000 %
b11 &
b1000 ,
#9000
0!
#9500
1!
b1010 &
#10000
0!
#10500
1!
b100 &
b11100001000100000000000000001 +
#11000
0!
#11500
1!
b0 #
b110 $
b1000 &
#12000
0!
#12500
1!
b1000 #
b0 $
b1001 &
b110 *
#13000
0!
#13500
1!
b111 &
b110 N
#14000
0!
#14500
1!
b100 $
b10 &
#15000
0!
#15500
1!
b1100 #
b0 $
b1100 %
b11 &
b1100 ,
#16000
0!
#16500
1!
b1010 &
#17000
0!
#17500
1!
b100 &
b111 )
b10011 +
#18000
0!
#18500
1!
b100 $
b100111 &
b1 '
b110 (
#19000
0!
#19500
1!
b1 #
b110 $
b101000 &
b10000 *
#20000
0!
#20500
1!
b1100 #
b111 &
#21000
0!
#21500
1!
b100 $
b10 &
#22000
0!
#22500
1!
b10000 #
b110 $
b10000 %
b11 &
b10000 ,
#23000
0!
#23500
1!
b1010 &
#24000
0!
#24500
1!
b100 &
b0 )
b1101 +
#25000
0!
#25500
1!
b0 $
b1111 &
b0 '
b0 (
#26000
0!
#26500
1!
b0 #
b0 %
b111 &
b0 ,
#27000
0!
#27500
1!
b100 $
b10 &
#28000
0!
#28500
1!
b100 #
b0 $
b100 %
b11 &
b100000001000010000000000000001 +
b100 ,
#29000
0!
#29500
1!
b1010 &
#30000
0!
#30500
1!
b100 &
b1000 )
b100000000000100000000000000110 +
#31000
0!
#31500
1!
b1 #
b1 $
b1000 &
b1 '
b1 (
#32000
0!
#32500
1!
b100 #
b1001 &
b10 *
#33000
0!
#33500
1!
b111 &
b10 M
#34000
0!
#34500
1!
b100 $
b10 &
#35000
0!
#35500
1!
b1000 #
b1 $
b1000 %
b11 &
b1000 ,
#36000
0!
#36500
1!
b1010 &
#37000
0!
#37500
1!
b100 &
b11100001000100000000000000001 +
#38000
0!
#38500
1!
b0 #
b110 $
b1000 &
b0 '
b110 (
#39000
0!
#39500
1!
b1000 #
b1001 &
b110 *
#40000
0!
#40500
1!
b111 &
#41000
0!
#41500
1!
b100 $
b10 &
#42000
0!
#42500
1!
b1100 #
b110 $
b1100 %
b11 &
b1100 ,
#43000
0!
#43500
1!
b1010 &
#44000
0!
#44500
1!
b100 &
b111 )
b10011 +
#45000
0!
#45500
1!
b100 $
b100111 &
b10 '
#46000
0!
#46500
1!
b10 #
b110 $
b101000 &
b10000 *
#47000
0!
#47500
1!
b1100 #
b111 &
#48000
0!
#48500
1!
b100 $
b10 &
#49000
0!
#49500
1!
b10000 #
b110 $
b10000 %
b11 &
b10000 ,
#50000
0!
#50500
1!
b1010 &
#51000
0!
#51500
1!
b100 &
b0 )
b1101 +
#52000
0!
#52500
1!
b0 $
b1111 &
b0 '
b0 (
#53000
0!
#53500
1!
b0 #
b0 %
b111 &
b0 ,
#54000
0!
#54500
1!
b100 $
b10 &
#55000
0!
#55500
1!
b100 #
b0 $
b100 %
b11 &
b100000001000010000000000000001 +
b100 ,
#56000
0!
#56500
1!
b1010 &
#57000
0!
#57500
1!
b100 &
b1000 )
b100000000000100000000000000110 +
#58000
0!
#58500
1!
b10 #
b1 $
b1000 &
b10 '
b10 (
#59000
0!
#59500
1!
b100 #
b10 $
b1001 &
b11 *
#60000
0!
#60500
1!
b111 &
b11 M
#61000
0!
#61500
1!
b100 $
b10 &
#62000
0!
#62500
1!
b1000 #
b10 $
b1000 %
b11 &
b1000 ,
#63000
0!
#63500
1!
b1010 &
#64000
0!
#64500
1!
b100 &
b11100001000100000000000000001 +
#65000
0!
#65500
1!
b0 #
b110 $
b1000 &
b0 '
b110 (
#66000
0!
#66500
1!
b1000 #
b1001 &
b110 *
#67000
0!
#67500
1!
b111 &
#68000
0!
#68500
1!
b100 $
b10 &
#69000
0!
#69500
1!
b1100 #
b110 $
b1100 %
b11 &
b1100 ,
#70000
0!
#70500
1!
b1010 &
#71000
0!
#71500
1!
b100 &
b111 )
b10011 +
#72000
0!
#72500
1!
b100 $
b100111 &
b11 '
#73000
0!
#73500
1!
b11 #
b110 $
b101000 &
b10000 *
#74000
0!
#74500
1!
b1100 #
b111 &
#75000
0!
#75500
1!
b100 $
b10 &
#76000
0!
#76500
1!
b10000 #
b110 $
b10000 %
b11 &
b10000 ,
#77000
0!
#77500
1!
b1010 &
#78000
0!
#78500
1!
b100 &
b0 )
b1101 +
#79000
0!
#79500
1!
b0 $
b1111 &
b0 '
b0 (
#80000
0!
#80500
1!
b0 #
b0 %
b111 &
b0 ,
#81000
0!
#81500
1!
b100 $
b10 &
#82000
0!
#82500
1!
b100 #
b0 $
b100 %
b11 &
b100000001000010000000000000001 +
b100 ,
#83000
0!
#83500
1!
b1010 &
#84000
0!
#84500
1!
b100 &
b1000 )
b100000000000100000000000000110 +
#85000
0!
#85500
1!
b11 #
b1 $
b1000 &
b11 '
b11 (
#86000
0!
#86500
1!
b100 #
b11 $
b1001 &
b100 *
#87000
0!
#87500
1!
b111 &
b100 M
#88000
0!
#88500
1!
b100 $
b10 &
#89000
0!
#89500
1!
b1000 #
b11 $
b1000 %
b11 &
b1000 ,
#90000
0!
#90500
1!
b1010 &
#91000
0!
#91500
1!
b100 &
b11100001000100000000000000001 +
#92000
0!
#92500
1!
b0 #
b110 $
b1000 &
b0 '
b110 (
#93000
0!
#93500
1!
b1000 #
b1001 &
b110 *
#94000
0!
#94500
1!
b111 &
#95000
0!
#95500
1!
b100 $
b10 &
#96000
0!
#96500
1!
b1100 #
b110 $
b1100 %
b11 &
b1100 ,
#97000
0!
#97500
1!
b1010 &
#98000
0!
#98500
1!
b100 &
b111 )
b10011 +
#99000
0!
#99500
1!
b100 $
b100111 &
b100 '
#100000
0!
#100500
1!
b100 #
b110 $
b101000 &
b10000 *
#101000
0!
#101500
1!
b1100 #
b111 &
#102000
0!
#102500
1!
b100 $
b10 &
#103000
0!
#103500
1!
b10000 #
b110 $
b10000 %
b11 &
b10000 ,
#104000
0!
#104500
1!
b1010 &
#105000
0!
#105500
1!
b100 &
b0 )
b1101 +
#106000
0!
#106500
1!
b0 $
b1111 &
b0 '
b0 (
#107000
0!
#107500
1!
b0 #
b0 %
b111 &
b0 ,
#108000
0!
#108500
1!
b100 $
b10 &
#109000
0!
#109500
1!
b100 #
b0 $
b100 %
b11 &
b100000001000010000000000000001 +
b100 ,
#110000
0!
#110500
1!
b1010 &
#111000
0!
#111500
1!
b100 &
b1000 )
b100000000000100000000000000110 +
#112000
0!
#112500
1!
b1 $
b1000 &
b100 '
b100 (
#113000
0!
#113500
1!
b100 $
b1001 &
b101 *
#114000
0!
#114500
1!
b111 &
b101 M
#115000
0!
#115500
1!
b10 &
#116000
0!
#116500
1!
b1000 #
b1000 %
b11 &
b1000 ,
#117000
0!
#117500
1!
b1010 &
#118000
0!
#118500
1!
b100 &
b11100001000100000000000000001 +
#119000
0!
#119500
1!
b0 #
b110 $
b1000 &
b0 '
b110 (
#120000
0!
#120500
1!
b1000 #
b1001 &
b110 *
#121000
0!
#121500
1!
b111 &
#122000
0!
#122500
1!
b100 $
b10 &
#123000
0!
#123500
1!
b1100 #
b110 $
b1100 %
b11 &
b1100 ,
#124000
0!
#124500
1!
b1010 &
#125000
0!
#125500
1!
b100 &
b111 )
b10011 +
#126000
0!
#126500
1!
b100 $
b100111 &
b101 '
#127000
0!
#127500
1!
b101 #
b110 $
b101000 &
b10000 *
#128000
0!
#128500
1!
b1100 #
b111 &
#129000
0!
#129500
1!
b100 $
b10 &
#130000
0!
#130500
1!
b10000 #
b110 $
b10000 %
b11 &
b10000 ,
#131000
0!
#131500
1!
b1010 &
#132000
0!
#132500
1!
b100 &
b0 )
b1101 +
#133000
0!
#133500
1!
b0 $
b1111 &
b0 '
b0 (
#134000
0!
#134500
1!
b0 #
b0 %
b111 &
b0 ,
#135000
0!
#135500
1!
b100 $
b10 &
#136000
0!
#136500
1!
b100 #
b0 $
b100 %
b11 &
b100000001000010000000000000001 +
b100 ,
#137000
0!
#137500
1!
b1010 &
#138000
0!
#138500
1!
b100 &
b1000 )
b100000000000100000000000000110 +
#139000
0!
#139500
1!
b101 #
b1 $
b1000 &
b101 '
b101 (
#140000
0!
#140500
1!
b100 #
b101 $
b1001 &
b110 *
#141000
0!
#141500
1!
b111 &
b110 M
#142000
0!
#142500
1!
b100 $
b10 &
#143000
0!
#143500
1!
b1000 #
b101 $
b1000 %
b11 &
b1000 ,
#144000
0!
#144500
1!
b1010 &
#145000
0!
#145500
1!
b100 &
b11100001000100000000000000001 +
#146000
0!
#146500
1!
b0 #
b110 $
b1000 &
b0 '
b110 (
#147000
0!
#147500
1!
b1000 #
b1001 &
#148000
0!
#148500
1!
b111 &
#149000
0!
#149500
1!
b100 $
b10 &
#150000
0!
#150500
1!
b1100 #
b110 $
b1100 %
b11 &
b1100 ,
#151000
0!
#151500
1!
b1010 &
#152000
0!
#152500
1!
b100 &
b111 )
b10011 +
#153000
0!
#153500
1!
b100 $
b100111 &
b110 '
#154000
0!
#154500
1!
b110 #
b110 $
b101000 &
b10000 *
#155000
0!
#155500
1!
b1100 #
b111 &
#156000
0!
#156500
1!
b100 $
b10 &
#157000
0!
#157500
1!
b10000 #
b110 $
b10000 %
b11 &
b10000 ,
#158000
0!
#158500
1!
b1010 &
#159000
0!
#159500
1!
b100 &
b0 )
b1101 +
#160000
0!
#160500
1!
b0 $
b1111 &
b0 '
b0 (
#161000
0!
#161500
1!
b0 #
b0 %
b111 &
b0 ,
#162000
0!
#162500
1!
b100 $
b10 &
#163000
0!
#163500
1!
b100 #
b0 $
b100 %
b11 &
b100000001000010000000000000001 +
b100 ,
#164000
0!
#164500
1!
b1010 &
#165000
0!
#165500
1!
b100 &
b1000 )
b100000000000100000000000000110 +
#166000
0!
#166500
1!
b110 #
b1 $
b1000 &
b110 '
b110 (
#167000
0!
#167500
1!
b100 #
b110 $
b1001 &
b111 *
#168000
0!
#168500
1!
b111 &
b111 M
#169000
0!
#169500
1!
b100 $
b10 &
#170000
0!
#170500
1!
b1000 #
b110 $
b1000 %
b11 &
b1000 ,
#171000
0!
#171500
1!
b1010 &
#172000
0!
#172500
1!
b100 &
b11100001000100000000000000001 +
#173000
0!
#173500
1!
b0 #
b1000 &
b0 '
#174000
0!
#174500
1!
b1000 #
b1001 &
b110 *
#175000
0!
#175500
1!
b111 &
#176000
0!
#176500
1!
b100 $
b10 &
#177000
0!
#177500
1!
b1100 #
b110 $
b1100 %
b11 &
b1100 ,
#178000
0!
#178500
1!
b1010 &
#179000
0!
#179500
1!
b100 &
b111 )
b10011 +
#180000
0!
#180500
1!
b100 $
b100111 &
b111 '
#181000
0!
#181500
1!
b111 #
b110 $
b101000 &
b10000 *
#182000
0!
#182500
1!
b10000 #
b10000 %
b111 &
b10000 ,
#183000
0!
#183500
1!
b100 $
b10 &
#184000
0!
#184500
1!
b10100 #
b110 $
b10100 %
b11 &
b1101 +
b10100 ,
#185000
0!
#185500
1!
b1010 &
#186000
0!
#186500
1!
b100 &
b0 )
b0 +
#187000
0!
#187500
1!
b100 $
b1101 &
b0 '
b0 (
#188000
0!
#188500
1!
b0 $
b1110 &
#189000
0!
#189500
1!
b10000 #
b10000 %
b111 &
b10000 ,
#190000
0!
#190500
1!
b100 $
b10 &
#191000
0!
#191500
1!
b10100 #
b0 $
b10100 %
b11 &
b1101 +
b10100 ,
#192000
0!
#192500
1!
b1010 &
#193000
0!
#193500
1!
b100 &
b0 +
#194000
0!
#194500
1!
b100 $
b1101 &
#195000
0!
#195500
1!
b0 $
b1110 &
#196000
0!
#196500
1!
b10000 #
b10000 %
b111 &
b10000 ,
#197000
0!
#197500
1!
b100 $
b10 &
#198000
0!
#198500
1!
b10100 #
b0 $
b10100 %
b11 &
b1101 +
b10100 ,
#199000
0!
#199500
1!
b1010 &
#200000
0!
#200500
1!
b100 &
b0 +
#201000
0!
#201500
1!
b100 $
b1101 &
#202000
0!
#202500
1!
b0 $
b1110 &
#203000
0!
#203500
1!
b10000 #
b10000 %
b111 &
b10000 ,
#204000
0!
#204500
1!
b100 $
b10 &
#205000
0!
#205500
1!
b10100 #
b0 $
b10100 %
b11 &
b1101 +
b10100 ,
#206000
0!
#206500
1!
b1010 &
#207000
0!
#207500
1!
b100 &
b0 +
#208000
0!
#208500
1!
b100 $
b1101 &
#209000
0!
#209500
1!
b0 $
b1110 &
#210000
0!
#210500
1!
b10000 #
b10000 %
b111 &
b10000 ,
#211000
0!
#211500
1!
b100 $
b10 &
#212000
0!
#212500
1!
b10100 #
b0 $
b10100 %
b11 &
b1101 +
b10100 ,
#213000
0!
#213500
1!
b1010 &
#214000
0!
#214500
1!
b100 &
b0 +
#215000
0!
#215500
1!
b100 $
b1101 &
#216000
0!
#216500
1!
b0 $
b1110 &
#217000
0!
#217500
1!
b10000 #
b10000 %
b111 &
b10000 ,
#218000
0!
#218500
1!
b100 $
b10 &
#219000
0!
#219500
1!
b10100 #
b0 $
b10100 %
b11 &
b1101 +
b10100 ,
#220000
0!
#220500
1!
b1010 &
#221000
0!
#221500
1!
b100 &
b0 +
#222000
0!
#222500
1!
b100 $
b1101 &
#223000
0!
#223500
1!
b0 $
b1110 &
#224000
0!
#224500
1!
b10000 #
b10000 %
b111 &
b10000 ,
#225000
0!
#225500
1!
b100 $
b10 &
#226000
0!
#226500
1!
b10100 #
b0 $
b10100 %
b11 &
b1101 +
b10100 ,
#227000
0!
#227500
1!
b1010 &
#228000
0!
#228500
1!
b100 &
b0 +
#229000
0!
#229500
1!
b100 $
b1101 &
#230000
0!
#230500
1!
b0 $
b1110 &
#231000
0!
#231500
1!
b10000 #
b10000 %
b111 &
b10000 ,
#232000
0!
#232500
1!
b100 $
b10 &
#233000
0!
#233500
1!
b10100 #
b0 $
b10100 %
b11 &
b1101 +
b10100 ,
#234000
0!
#234500
1!
b1010 &
#235000
0!
#235500
1!
b100 &
b0 +
#236000
0!
#236500
1!
b100 $
b1101 &
#237000
0!
#237500
1!
b0 $
b1110 &
#238000
0!
#238500
1!
b10000 #
b10000 %
b111 &
b10000 ,
#239000
0!
#239500
1!
b100 $
b10 &
#240000
0!
#240500
1!
b10100 #
b0 $
b10100 %
b11 &
b1101 +
b10100 ,
#241000
0!
#241500
1!
b1010 &
#242000
0!
#242500
1!
b100 &
b0 +
#243000
0!
#243500
1!
b100 $
b1101 &
#244000
0!
#244500
1!
b0 $
b1110 &
#245000
0!
#245500
1!
b10000 #
b10000 %
b111 &
b10000 ,
#246000
0!
#246500
1!
b100 $
b10 &
#247000
0!
#247500
1!
b10100 #
b0 $
b10100 %
b11 &
b1101 +
b10100 ,
#248000
0!
#248500
1!
b1010 &
#249000
0!
#249500
1!
b100 &
b0 +
#250000
0!
#250500
1!
b100 $
b1101 &
#251000
0!
#251500
1!
b0 $
b1110 &
#252000
0!
#252500
1!
b10000 #
b10000 %
b111 &
b10000 ,
#253000
0!
#253500
1!
b100 $
b10 &
#254000
0!
#254500
1!
b10100 #
b0 $
b10100 %
b11 &
b1101 +
b10100 ,
#255000
0!
#255500
1!
b1010 &
#256000
0!
#256500
1!
b100 &
b0 +
#257000
0!
#257500
1!
b100 $
b1101 &
#258000
0!
#258500
1!
b0 $
b1110 &
#259000
0!
#259500
1!
b10000 #
b10000 %
b111 &
b10000 ,
#260000
0!
#260500
1!
b100 $
b10 &
#261000
0!
#261500
1!
b10100 #
b0 $
b10100 %
b11 &
b1101 +
b10100 ,
#262000
0!
#262500
1!
b1010 &
#263000
0!
#263500
1!
b100 &
b0 +
#264000
0!
#264500
1!
b100 $
b1101 &
#265000
0!
#265500
1!
b0 $
b1110 &
#266000
0!
#266500
1!
b10000 #
b10000 %
b111 &
b10000 ,
#267000
0!
#267500
1!
b100 $
b10 &
#268000
0!
#268500
1!
b10100 #
b0 $
b10100 %
b11 &
b1101 +
b10100 ,
#269000
0!
#269500
1!
b1010 &
#270000
0!
#270500
1!
b100 &
b0 +
#271000
0!
#271500
1!
b100 $
b1101 &
#272000
0!
#272500
1!
b0 $
b1110 &
#273000
0!
#273500
1!
b10000 #
b10000 %
b111 &
b10000 ,
#274000
0!
#274500
1!
b100 $
b10 &
#275000
0!
#275500
1!
b10100 #
b0 $
b10100 %
b11 &
b1101 +
b10100 ,
#276000
0!
#276500
1!
b1010 &
#277000
0!
#277500
1!
b100 &
b0 +
#278000
0!
#278500
1!
b100 $
b1101 &
#279000
0!
#279500
1!
b0 $
b1110 &
#280000
0!
#280500
1!
b10000 #
b10000 %
b111 &
b10000 ,
#281000
0!
#281500
1!
b100 $
b10 &
#282000
0!
#282500
1!
b10100 #
b0 $
b10100 %
b11 &
b1101 +
b10100 ,
#283000
0!
#283500
1!
b1010 &
#284000
0!
#284500
1!
b100 &
b0 +
#285000
0!
#285500
1!
b100 $
b1101 &
#286000
0!
#286500
1!
b0 $
b1110 &
#287000
0!
#287500
1!
b10000 #
b10000 %
b111 &
b10000 ,
#288000
0!
#288500
1!
b100 $
b10 &
#289000
0!
#289500
1!
b10100 #
b0 $
b10100 %
b11 &
b1101 +
b10100 ,
#290000
0!
#290500
1!
b1010 &
#291000
0!
#291500
1!
b100 &
b0 +
#292000
0!
#292500
1!
b100 $
b1101 &
#293000
0!
#293500
1!
b0 $
b1110 &
#294000
0!
#294500
1!
b10000 #
b10000 %
b111 &
b10000 ,
#295000
0!
#295500
1!
b100 $
b10 &
#296000
0!
#296500
1!
b10100 #
b0 $
b10100 %
b11 &
b1101 +
b10100 ,
#297000
0!
#297500
1!
b1010 &
#298000
0!
#298500
1!
b100 &
b0 +
#299000
0!
#299500
1!
b100 $
b1101 &
#300000
0!
#300500
1!
b0 $
b1110 &
#301000
0!
#301500
1!
b10000 #
b10000 %
b111 &
b10000 ,
#302000
0!
#302500
1!
b100 $
b10 &
#303000
0!
#303500
1!
b10100 #
b0 $
b10100 %
b11 &
b1101 +
b10100 ,
#304000
0!
#304500
1!
b1010 &
#305000
0!
#305500
1!
b100 &
b0 +
#306000
0!
#306500
1!
b100 $
b1101 &
#307000
0!
#307500
1!
b0 $
b1110 &
#308000
0!
#308500
1!
b10000 #
b10000 %
b111 &
b10000 ,
#309000
0!
#309500
1!
b100 $
b10 &
#310000
0!
#310500
1!
b10100 #
b0 $
b10100 %
b11 &
b1101 +
b10100 ,
#311000
0!
#311500
1!
b1010 &
#312000
0!
#312500
1!
b100 &
b0 +
#313000
0!
#313500
1!
b100 $
b1101 &
#314000
0!
#314500
1!
b0 $
b1110 &
#315000
0!
#315500
1!
b10000 #
b10000 %
b111 &
b10000 ,
#316000
0!
#316500
1!
b100 $
b10 &
#317000
0!
#317500
1!
b10100 #
b0 $
b10100 %
b11 &
b1101 +
b10100 ,
#318000
0!
#318500
1!
b1010 &
#319000
0!
#319500
1!
b100 &
b0 +
#320000
0!
#320500
1!
b100 $
b1101 &
#321000
0!
#321500
1!
b0 $
b1110 &
#322000
0!
#322500
1!
b10000 #
b10000 %
b111 &
b10000 ,
#323000
0!
#323500
1!
b100 $
b10 &
#324000
0!
#324500
1!
b10100 #
b0 $
b10100 %
b11 &
b1101 +
b10100 ,
#325000
0!
#325500
1!
b1010 &
#326000
0!
#326500
1!
b100 &
b0 +
#327000
0!
#327500
1!
b100 $
b1101 &
#328000
0!
#328500
1!
b0 $
b1110 &
#329000
0!
#329500
1!
b10000 #
b10000 %
b111 &
b10000 ,
#330000
0!
#330500
1!
b100 $
b10 &
#331000
0!
#331500
1!
b10100 #
b0 $
b10100 %
b11 &
b1101 +
b10100 ,
#332000
0!
#332500
1!
b1010 &
#333000
0!
#333500
1!
b100 &
b0 +
#334000
0!
#334500
1!
b100 $
b1101 &
#335000
0!
#335500
1!
b0 $
b1110 &
#336000
0!
#336500
1!
b10000 #
b10000 %
b111 &
b10000 ,
#337000
0!
#337500
1!
b100 $
b10 &
#338000
0!
#338500
1!
b10100 #
b0 $
b10100 %
b11 &
b1101 +
b10100 ,
#339000
0!
#339500
1!
b1010 &
#340000
0!
#340500
1!
b100 &
b0 +
#341000
0!
#341500
1!
b100 $
b1101 &
#342000
0!
#342500
1!
b0 $
b1110 &
#343000
0!
#343500
1!
b10000 #
b10000 %
b111 &
b10000 ,
#344000
0!
#344500
1!
b100 $
b10 &
#345000
0!
#345500
1!
b10100 #
b0 $
b10100 %
b11 &
b1101 +
b10100 ,
#346000
0!
#346500
1!
b1010 &
#347000
0!
#347500
1!
b100 &
b0 +
#348000
0!
#348500
1!
b100 $
b1101 &
#349000
0!
#349500
1!
b0 $
b1110 &
#350000
0!
#350500
1!
b10000 #
b10000 %
b111 &
b10000 ,
#351000
0!
#351500
1!
b100 $
b10 &
#352000
0!
#352500
1!
b10100 #
b0 $
b10100 %
b11 &
b1101 +
b10100 ,
#353000
0!
#353500
1!
b1010 &
#354000
0!
#354500
1!
b100 &
b0 +
#355000
0!
#355500
1!
b100 $
b1101 &
#356000
0!
#356500
1!
b0 $
b1110 &
#357000
0!
#357500
1!
b10000 #
b10000 %
b111 &
b10000 ,
#358000
0!
#358500
1!
b100 $
b10 &
#359000
0!
#359500
1!
b10100 #
b0 $
b10100 %
b11 &
b1101 +
b10100 ,
#360000
0!
#360500
1!
b1010 &
#361000
0!
#361500
1!
b100 &
b0 +
#362000
0!
#362500
1!
b100 $
b1101 &
#363000
0!
#363500
1!
b0 $
b1110 &
#364000
0!
#364500
1!
b10000 #
b10000 %
b111 &
b10000 ,
#365000
0!
#365500
1!
b100 $
b10 &
#366000
0!
#366500
1!
b10100 #
b0 $
b10100 %
b11 &
b1101 +
b10100 ,
#367000
0!
#367500
1!
b1010 &
#368000
0!
#368500
1!
b100 &
b0 +
#369000
0!
#369500
1!
b100 $
b1101 &
#370000
0!
#370500
1!
b0 $
b1110 &
#371000
0!
#371500
1!
b10000 #
b10000 %
b111 &
b10000 ,
#372000
0!
#372500
1!
b100 $
b10 &
#373000
0!
#373500
1!
b10100 #
b0 $
b10100 %
b11 &
b1101 +
b10100 ,
#374000
0!
#374500
1!
b1010 &
#375000
0!
#375500
1!
b100 &
b0 +
#376000
0!
#376500
1!
b100 $
b1101 &
#377000
0!
#377500
1!
b0 $
b1110 &
#378000
0!
#378500
1!
b10000 #
b10000 %
b111 &
b10000 ,
#379000
0!
#379500
1!
b100 $
b10 &
#380000
0!
#380500
1!
b10100 #
b0 $
b10100 %
b11 &
b1101 +
b10100 ,
#381000
0!
#381500
1!
b1010 &
#382000
0!
#382500
1!
b100 &
b0 +
#383000
0!
#383500
1!
b100 $
b1101 &
#384000
0!
#384500
1!
b0 $
b1110 &
#385000
0!
#385500
1!
b10000 #
b10000 %
b111 &
b10000 ,
#386000
0!
#386500
1!
b100 $
b10 &
#387000
0!
#387500
1!
b10100 #
b0 $
b10100 %
b11 &
b1101 +
b10100 ,
#388000
0!
#388500
1!
b1010 &
#389000
0!
#389500
1!
b100 &
b0 +
#390000
0!
#390500
1!
b100 $
b1101 &
#391000
0!
#391500
1!
b0 $
b1110 &
#392000
0!
#392500
1!
b10000 #
b10000 %
b111 &
b10000 ,
#393000
0!
#393500
1!
b100 $
b10 &
#394000
0!
#394500
1!
b10100 #
b0 $
b10100 %
b11 &
b1101 +
b10100 ,
#395000
0!
#395500
1!
b1010 &
#396000
0!
#396500
1!
b100 &
b0 +
#397000
0!
#397500
1!
b100 $
b1101 &
#398000
0!
#398500
1!
b0 $
b1110 &
#399000
0!
#399500
1!
b10000 #
b10000 %
b111 &
b10000 ,
#400000
0!
#400500
1!
b100 $
b10 &
#401000
0!
#401500
1!
b10100 #
b0 $
b10100 %
b11 &
b1101 +
b10100 ,
#402000
0!
#402500
1!
b1010 &
#403000
0!
#403500
1!
b100 &
b0 +
#404000
0!
#404500
1!
b100 $
b1101 &
#405000
0!
#405500
1!
b0 $
b1110 &
#406000
0!
#406500
1!
b10000 #
b10000 %
b111 &
b10000 ,
#407000
0!
#407500
1!
b100 $
b10 &
#408000
0!
#408500
1!
b10100 #
b0 $
b10100 %
b11 &
b1101 +
b10100 ,
#409000
0!
#409500
1!
b1010 &
#410000
0!
#410500
1!
b100 &
b0 +
#411000
0!
#411500
1!
b100 $
b1101 &
#412000
0!
#412500
1!
b0 $
b1110 &
#413000
0!
#413500
1!
b10000 #
b10000 %
b111 &
b10000 ,
#414000
0!
#414500
1!
b100 $
b10 &
#415000
0!
#415500
1!
b10100 #
b0 $
b10100 %
b11 &
b1101 +
b10100 ,
#416000
0!
#416500
1!
b1010 &
#417000
0!
#417500
1!
b100 &
b0 +
#418000
0!
#418500
1!
b100 $
b1101 &
#419000
0!
#419500
1!
b0 $
b1110 &
#420000
0!
#420500
1!
b10000 #
b10000 %
b111 &
b10000 ,
#421000
0!
#421500
1!
b100 $
b10 &
#422000
0!
#422500
1!
b10100 #
b0 $
b10100 %
b11 &
b1101 +
b10100 ,
#423000
0!
#423500
1!
b1010 &
#424000
0!
#424500
1!
b100 &
b0 +
#425000
0!
#425500
1!
b100 $
b1101 &
#426000
0!
#426500
1!
b0 $
b1110 &
#427000
0!
#427500
1!
b10000 #
b10000 %
b111 &
b10000 ,
#428000
0!
#428500
1!
b100 $
b10 &
#429000
0!
#429500
1!
b10100 #
b0 $
b10100 %
b11 &
b1101 +
b10100 ,
#430000
0!
#430500
1!
b1010 &
#431000
0!
#431500
1!
b100 &
b0 +
#432000
0!
#432500
1!
b100 $
b1101 &
#433000
0!
#433500
1!
b0 $
b1110 &
#434000
0!
#434500
1!
b10000 #
b10000 %
b111 &
b10000 ,
#435000
0!
#435500
1!
b100 $
b10 &
#436000
0!
#436500
1!
b10100 #
b0 $
b10100 %
b11 &
b1101 +
b10100 ,
#437000
0!
#437500
1!
b1010 &
#438000
0!
#438500
1!
b100 &
b0 +
#439000
0!
#439500
1!
b100 $
b1101 &
#440000
0!
#440500
1!
b0 $
b1110 &
#441000
0!
#441500
1!
b10000 #
b10000 %
b111 &
b10000 ,
#442000
0!
#442500
1!
b100 $
b10 &
#443000
0!
#443500
1!
b10100 #
b0 $
b10100 %
b11 &
b1101 +
b10100 ,
#444000
0!
#444500
1!
b1010 &
#445000
0!
#445500
1!
b100 &
b0 +
#446000
0!
