Teste/PQP.vcd
$comment
Copyright (C) 1991-2010 Altera Corporation
Your use of Altera Corporation's design tools, logic functions 
and other software and tools, and its AMPP partner logic 
functions, and any output files from any of the foregoing 
(including device programming or simulation files), and any 
associated documentation or information are expressly subject 
to the terms and conditions of the Altera Program License 
Subscription Agreement, Altera MegaCore Function License 
Agreement, or other applicable license agreement, including, 
without limitation, that your use is for the sole purpose of 
programming logic devices manufactured by Altera and sold by 
Altera or its authorized distributors.  Please refer to the 
applicable agreement for further details.
$end

$date 
  05/18/2019 00:34:06 
$end
$version 
 QUARTUS_VCD_EXPORT 1.0 
$end
$timescale
  1 ps
$end
$scope module CPU $end
$var reg 1 ! clock $end
$var reg 1 " reset $end
$var reg 32 # MuxALUSourceAOut[31:0] $end
$var reg 32 $ MuxALUSourceBOut[31:0] $end
$var reg 7 % stateout[6:0] $end
$var reg 32 & RegBOut[31:0] $end
$var reg 6 ' OpCode[5:0] $end
$var reg 32 ( ALUOutOut[31:0] $end
$var reg 32 ) MemOut[31:0] $end
$var reg 32 * MuxIordOut[31:0] $end
$var reg 32 + MemDataRegOut[31:0] $end
$var reg 2 , SControl[1:0] $end
$var reg 32 - StoreBoxOut[31:0] $end
$var reg 32 . ExtendImediato2to32bit[31:0] $end
$var reg 32 / MuxWriteMemOut[31:0] $end
$scope module BancoRegistradores $end
$var reg 32 0 Reg0[31:0] $end
$var reg 32 1 Reg3[31:0] $end
$var reg 32 2 Reg4[31:0] $end
$var reg 32 3 Reg5[31:0] $end
$var reg 32 4 Reg6[31:0] $end
$var reg 32 5 Reg7[31:0] $end
$var reg 32 6 Reg8[31:0] $end
$var reg 32 7 Reg9[31:0] $end
$var reg 32 8 Reg10[31:0] $end
$var reg 32 9 Reg11[31:0] $end
$var reg 32 : Reg12[31:0] $end
$var reg 32 ; Reg13[31:0] $end
$var reg 32 < Reg14[31:0] $end
$var reg 32 = Reg15[31:0] $end
$var reg 32 > Reg16[31:0] $end
$var reg 32 ? Reg17[31:0] $end
$var reg 32 @ Reg18[31:0] $end
$var reg 32 A Reg19[31:0] $end
$var reg 32 B Reg20[31:0] $end
$var reg 32 C Reg21[31:0] $end
$var reg 32 D Reg22[31:0] $end
$var reg 32 E Reg23[31:0] $end
$var reg 32 F Reg24[31:0] $end
$var reg 32 G Reg25[31:0] $end
$var reg 32 H Reg26[31:0] $end
$var reg 32 I Reg27[31:0] $end
$var reg 32 J Reg28[31:0] $end
$var reg 32 K Reg29[31:0] $end
$var reg 32 L Reg30[31:0] $end
$var reg 32 M Reg31[31:0] $end
$upscope $end
$upscope $end
$var reg 32 N \Banco_reg:BancoRegistradores|Reg1 [31:0] $end
$var reg 32 O \Banco_reg:BancoRegistradores|Reg2 [31:0] $end
$enddefinitions $end
#0
$dumpvars
0!
0"
b0 #
b0 $
b1 %
b0 &
b0 '
b0 (
b0 )
b0 *
b0 +
b0 ,
b0 -
b0 .
b0 /
b0 0
b0 1
b0 2
b0 3
b0 4
b0 5
b0 6
b0 7
b0 8
b0 9
b0 :
b0 ;
b0 <
b0 =
b0 >
b0 ?
b0 @
b0 A
b0 B
b0 C
b0 D
b0 E
b0 F
b0 G
b0 H
b0 I
b0 J
b0 K
b0 L
b0 M
b0 N
b0 O
$end
#5000
1!
b100 $
b10 %
#10000
0!
#15000
1!
b100 #
b0 $
b11 %
b100000000000010000000000010001 )
b100 *
#20000
0!
#25000
1!
b1010 %
#30000
0!
#35000
1!
b100 %
b1000 '
b10101100000000010000000001011000 )
b10000000000010001 .
#40000
0!
#45000
1!
b0 #
b10001 $
b1000 %
#50000
0!
#55000
1!
b100 #
b0 $
b1001 %
b10001 (
#60000
0!
#65000
1!
b111 %
b10001 N
#70000
0!
#75000
1!
b100 $
b10 %
#80000
0!
#85000
1!
b1000 #
b0 $
b11 %
b1000 *
#90000
0!
#95000
1!
b1010 %
#100000
0!
#105000
1!
b100 %
b101011 '
b10001100000000100000000001011000 )
b10000000001011000 .
#110000
0!
#115000
1!
b0 #
b1011000 $
b111000 %
b10001 &
b10001 -
b10001 /
#120000
0!
#125000
1!
b1000 #
b10001 $
b111001 %
b1011000 (
b1011000 *
#130000
0!
#135000
1!
b111010 %
b1000 *
#140000
0!
#145000
1!
b111110 %
b0 )
#150000
0!
#155000
1!
b111011 %
b10001100000000100000000001011000 )
b1011000 *
#160000
0!
#165000
1!
b111 %
b1000 *
#170000
0!
#175000
1!
b100 $
b10 %
b10001 )
#180000
0!
#185000
1!
b1100 #
b10001 $
b11 %
b10001100000000100000000001011000 )
b1100 *
#190000
0!
#195000
1!
b1010 %
#200000
0!
#205000
1!
b100 %
b100011 '
b1000000000000000000000001011000 )
b100000000001011000 .
#210000
0!
#215000
1!
b0 #
b1011000 $
b101011 %
b0 &
b0 -
b0 /
#220000
0!
#225000
1!
b1100 #
b0 $
b101100 %
b1011000 *
#230000
0!
#235000
1!
b110101 %
b1100 *
#240000
0!
#245000
1!
b110110 %
b10001 )
#250000
0!
#255000
1!
b101101 %
b1000000000000000000000001011000 )
b10001 +
#260000
0!
#265000
1!
b111 %
b10001 O
#270000
0!
#275000
1!
b100 $
b10 %
#280000
0!
#285000
1!
b10000 #
b0 $
b11 %
b10000 *
#290000
0!
#295000
1!
b1010 %
#300000
0!
#305000
1!
b100 %
b10000 '
b10001100000000110000000001011000 )
b1011000 .
#310000
0!
#315000
1!
b1000000 %
b1011000 *
#320000
0!
#325000
1!
b1000001 %
#330000
0!
#335000
1!
b1000010 %
b10001 )
b10000 *
#340000
0!
#345000
1!
b1 #
b10001 $
b1000011 %
#350000
0!
#355000
1!
b10000 #
b0 $
b1000100 %
b10010 (
b10001100000000110000000001011000 )
b1011000 *
b10010 /
#360000
0!
#365000
1!
b111 %
b10000 *
b0 /
#370000
0!
#375000
1!
b100 $
b10 %
b10010 )
#380000
0!
#385000
1!
b10100 #
b0 $
b11 %
b10001100000000110000000001011000 )
b10100 *
#390000
0!
#395000
1!
b1010 %
#400000
0!
#405000
1!
b100 %
b100011 '
b0 )
b110000000001011000 .
#410000
0!
#415000
1!
b0 #
b1011000 $
b101011 %
#420000
0!
#425000
1!
b10100 #
b0 $
b101100 %
b1011000 (
b1011000 *
#430000
0!
#435000
1!
b110101 %
b10100 *
#440000
0!
#445000
1!
b110110 %
b10010 )
#450000
0!
#455000
1!
b101101 %
b0 )
b10010 +
#460000
0!
#465000
1!
b111 %
b10010 1
#470000
0!
#475000
1!
b100 $
b10 %
#480000
0!
#485000
1!
b11000 #
b0 $
b11 %
b11000 *
#490000
0!
#495000
1!
b1010 %
#500000
0!
#505000
1!
b100 %
b0 '
b0 .
#510000
0!
#515000
1!
b10001 %
#520000
0!
#525000
1!
b11001 %
#530000
0!
#535000
1!
b10010 %
#540000
0!
#545000
1!
b111 %
#550000
0!
#555000
1!
b100 $
b10 %
#560000
0!
#565000
1!
b11100 #
b0 $
b11 %
b11100 *
#570000
0!
#575000
1!
b1010 %
#580000
0!
#585000
1!
b100 %
#590000
0!
#595000
1!
b10001 %
#600000
0!
#605000
1!
b11001 %
#610000
0!
#615000
1!
b10010 %
#620000
0!
#625000
1!
b111 %
#630000
0!
#635000
1!
b100 $
b10 %
#640000
0!
#645000
1!
b100000 #
b0 $
b11 %
b100000 *
#650000
0!
#655000
1!
b1010 %
#660000
0!
#665000
1!
b100 %
#670000
0!
#675000
1!
b10001 %
#680000
0!
#685000
1!
b11001 %
#690000
0!
#695000
1!
b10010 %
#700000
0!
#705000
1!
b111 %
#710000
0!
#715000
1!
b100 $
b10 %
#720000
0!
#725000
1!
b100100 #
b0 $
b11 %
b100100 *
#730000
0!
#735000
1!
b1010 %
#740000
0!
#745000
1!
b100 %
#750000
0!
#755000
1!
b10001 %
#760000
0!
#765000
1!
b11001 %
#770000
0!
#775000
1!
b10010 %
#780000
0!
#785000
1!
b111 %
#790000
0!
#795000
1!
b100 $
b10 %
#800000
0!
#805000
1!
b101000 #
b0 $
b11 %
b101000 *
#810000
0!
#815000
1!
b1010 %
#820000
0!
#825000
1!
b100 %
#830000
0!
#835000
1!
b10001 %
#840000
0!
#845000
1!
b11001 %
#850000
0!
#855000
1!
b10010 %
#860000
0!
#865000
1!
b111 %
#870000
0!
#875000
1!
b100 $
b10 %
#880000
0!
#885000
1!
b101100 #
b0 $
b11 %
b101100 *
#890000
0!
#895000
1!
b1010 %
#900000
0!
#905000
1!
b100 %
#910000
0!
#915000
1!
b10001 %
#920000
0!
#925000
1!
b11001 %
#930000
0!
#935000
1!
b10010 %
#940000
0!
#945000
1!
b111 %
#950000
0!
#955000
1!
b100 $
b10 %
#960000
0!
#965000
1!
b110000 #
b0 $
b11 %
b110000 *
#970000
0!
#975000
1!
b1010 %
#980000
0!
#985000
1!
b100 %
#990000
0!
#995000
1!
b10001 %
