Teste/PQP.vcd
$comment
Copyright (C) 1991-2010 Altera Corporation
Your use of Altera Corporation's design tools, logic functions 
and other software and tools, and its AMPP partner logic 
functions, and any output files from any of the foregoing 
(including device programming or simulation files), and any 
associated documentation or information are expressly subject 
to the terms and conditions of the Altera Program License 
Subscription Agreement, Altera MegaCore Function License 
Agreement, or other applicable license agreement, including, 
without limitation, that your use is for the sole purpose of 
programming logic devices manufactured by Altera and sold by 
Altera or its authorized distributors.  Please refer to the 
applicable agreement for further details.
$end

$date 
  05/18/2019 10:03:28 
$end
$version 
 QUARTUS_VCD_EXPORT 1.0 
$end
$timescale
  1 ps
$end
$scope module CPU $end
$var reg 1 ! clock $end
$var reg 1 " reset $end
$var reg 32 # MuxALUSourceAOut[31:0] $end
$var reg 32 $ MuxALUSourceBOut[31:0] $end
$var reg 7 % stateout[6:0] $end
$var reg 32 & RegBOut[31:0] $end
$var reg 6 ' OpCode[5:0] $end
$var reg 32 ( ALUOutOut[31:0] $end
$var reg 32 ) MemOut[31:0] $end
$var reg 32 * MuxIordOut[31:0] $end
$var reg 32 + MemDataRegOut[31:0] $end
$var reg 2 , SControl[1:0] $end
$var reg 32 - StoreBoxOut[31:0] $end
$var reg 32 . ExtendImediato2to32bit[31:0] $end
$var reg 32 / MuxWriteMemOut[31:0] $end
$scope module BancoRegistradores $end
$var reg 32 0 Reg0[31:0] $end
$var reg 32 1 Reg3[31:0] $end
$var reg 32 2 Reg4[31:0] $end
$var reg 32 3 Reg5[31:0] $end
$var reg 32 4 Reg6[31:0] $end
$var reg 32 5 Reg7[31:0] $end
$var reg 32 6 Reg8[31:0] $end
$var reg 32 7 Reg9[31:0] $end
$var reg 32 8 Reg10[31:0] $end
$var reg 32 9 Reg11[31:0] $end
$var reg 32 : Reg12[31:0] $end
$var reg 32 ; Reg13[31:0] $end
$var reg 32 < Reg14[31:0] $end
$var reg 32 = Reg15[31:0] $end
$var reg 32 > Reg16[31:0] $end
$var reg 32 ? Reg17[31:0] $end
$var reg 32 @ Reg18[31:0] $end
$var reg 32 A Reg19[31:0] $end
$var reg 32 B Reg20[31:0] $end
$var reg 32 C Reg21[31:0] $end
$var reg 32 D Reg22[31:0] $end
$var reg 32 E Reg23[31:0] $end
$var reg 32 F Reg24[31:0] $end
$var reg 32 G Reg25[31:0] $end
$var reg 32 H Reg26[31:0] $end
$var reg 32 I Reg27[31:0] $end
$var reg 32 J Reg28[31:0] $end
$var reg 32 K Reg29[31:0] $end
$var reg 32 L Reg30[31:0] $end
$var reg 32 M Reg31[31:0] $end
$upscope $end
$upscope $end
$var reg 32 N \Banco_reg:BancoRegistradores|Reg1 [31:0] $end
$var reg 32 O \Banco_reg:BancoRegistradores|Reg2 [31:0] $end
$enddefinitions $end
#0
$dumpvars
0!
0"
b0 #
b0 $
b1 %
b0 &
b0 '
b0 (
b0 )
b0 *
b0 +
b0 ,
b0 -
b0 .
b0 /
b0 0
b0 1
b0 2
b0 3
b0 4
b0 5
b0 6
b0 7
b0 8
b0 9
b0 :
b0 ;
b0 <
b0 =
b0 >
b0 ?
b0 @
b0 A
b0 B
b0 C
b0 D
b0 E
b0 F
b0 G
b0 H
b0 I
b0 J
b0 K
b0 L
b0 M
b0 N
b0 O
$end
#5000
1!
b100 $
b10 %
b11100011 K
#10000
0!
#15000
1!
b100 #
b0 $
b11 %
b100000000011100000000000000011 )
b100 *
#20000
0!
#25000
1!
b1010 %
#30000
0!
#35000
1!
b100 %
b1000 '
b100000000011110000000000000100 )
b11100000000000000011 .
#40000
0!
#45000
1!
b0 #
b11 $
b1000 %
#50000
0!
#55000
1!
b100 #
b0 $
b1001 %
b11 (
#60000
0!
#65000
1!
b111 %
b11 <
#70000
0!
#75000
1!
b100 $
b10 %
#80000
0!
#85000
1!
b1000 #
b0 $
b11 %
b1000 *
#90000
0!
#95000
1!
b1010 %
#100000
0!
#105000
1!
b100 %
b1110011110000000000011000 )
b11110000000000000100 .
#110000
0!
#115000
1!
b0 #
b100 $
b1000 %
#120000
0!
#125000
1!
b1000 #
b0 $
b1001 %
b100 (
#130000
0!
#135000
1!
b111 %
b100 =
#140000
0!
#145000
1!
b100 $
b10 %
#150000
0!
#155000
1!
b1100 #
b0 $
b11 %
b1100 *
#160000
0!
#165000
1!
b1010 %
#170000
0!
#175000
1!
b100 %
b0 '
b0 )
b1110011110000000000011000 .
#180000
0!
#185000
1!
b100 $
b110111 %
b100 &
b100 -
b100 /
#190000
0!
#195000
1!
b1010000 %
